<?xml version="1.0" encoding="UTF-8" standalone="no"?>
<!-- Generator: Adobe Illustrator 10.0.3, SVG Export Plug-In . SVG Version: 3.0.0 Build 77)  -->

<svg
   xmlns:dc="http://purl.org/dc/elements/1.1/"
   xmlns:cc="http://creativecommons.org/ns#"
   xmlns:rdf="http://www.w3.org/1999/02/22-rdf-syntax-ns#"
   xmlns:svg="http://www.w3.org/2000/svg"
   xmlns="http://www.w3.org/2000/svg"
   xmlns:xlink="http://www.w3.org/1999/xlink"
   xmlns:sodipodi="http://sodipodi.sourceforge.net/DTD/sodipodi-0.dtd"
   xmlns:inkscape="http://www.inkscape.org/namespaces/inkscape"
   sodipodi:docname="folder-pictures.svg"
   inkscape:version="0.92.5 (2060ec1f9f, 2020-04-08)"
   sodipodi:version="0.32"
   id="svg2"
   xml:space="preserve"
   enable-background="new 0 0 130.296 129.451"
   overflow="visible"
   viewBox="0 0 421.87498 421.87499"
   height="450"
   width="450"
   version="1.1"
   style="overflow:visible"><title
   id="title839">DIN Ordner</title><metadata
   id="metadata233">
  <rdf:RDF>
    <cc:Work
   rdf:about="">
      <dc:format>image/svg+xml</dc:format>


      <dc:type
   rdf:resource="http://purl.org/dc/dcmitype/StillImage" />


    <dc:title>DIN Ordner</dc:title><dc:creator><cc:Agent><dc:title>Joachim Schwender</dc:title></cc:Agent></dc:creator><dc:subject><rdf:Bag><rdf:li>Ordner</rdf:li><rdf:li>Folder</rdf:li></rdf:Bag></dc:subject><dc:description>Lokalisierte Symbole für Ordner für eine intuitivere Darstellung</dc:description><cc:license
   rdf:resource="http://creativecommons.org/licenses/by-nc-sa/4.0/" /></cc:Work>


  <cc:License
   rdf:about="http://creativecommons.org/licenses/by-nc-sa/4.0/"><cc:permits
     rdf:resource="http://creativecommons.org/ns#Reproduction" /><cc:permits
     rdf:resource="http://creativecommons.org/ns#Distribution" /><cc:requires
     rdf:resource="http://creativecommons.org/ns#Notice" /><cc:requires
     rdf:resource="http://creativecommons.org/ns#Attribution" /><cc:prohibits
     rdf:resource="http://creativecommons.org/ns#CommercialUse" /><cc:permits
     rdf:resource="http://creativecommons.org/ns#DerivativeWorks" /><cc:requires
     rdf:resource="http://creativecommons.org/ns#ShareAlike" /></cc:License></rdf:RDF>


</metadata>


<defs
   id="defs231"><linearGradient
   inkscape:collect="always"
   id="linearGradient1002"><stop
     style="stop-color:#ff8300;stop-opacity:1;"
     offset="0"
     id="stop998" /><stop
     style="stop-color:#ffffff;stop-opacity:1"
     offset="1"
     id="stop1000" /></linearGradient><linearGradient
   inkscape:collect="always"
   id="linearGradient986"><stop
     style="stop-color:#da7700;stop-opacity:1;"
     offset="0"
     id="stop982" /><stop
     style="stop-color:#ffffff;stop-opacity:0.93584907"
     offset="1"
     id="stop984" /></linearGradient>
		
		
		
	
  

  

  

  

  

  

  

<radialGradient
   gradientUnits="userSpaceOnUse"
   gradientTransform="matrix(-0.60667,0,0,0.40349,41,26.347)"
   r="8.7946"
   cy="34.786"
   cx="14.363"
   id="radialGradient3051"><stop
     offset="0"
     id="stop7824" /><stop
     offset="1"
     style="stop-opacity:0"
     id="stop7826" /></radialGradient><linearGradient
   gradientUnits="userSpaceOnUse"
   gradientTransform="matrix(1.1875,0,0,1.2,-16.299,21.893)"
   y2="-6.5684"
   y1="25.357"
   x2="-11.006"
   x1="-7.9751"
   id="linearGradient3048"><stop
     offset="0"
     style="stop-color:#d3d7cf"
     id="stop6993" /><stop
     offset="1"
     style="stop-color:#fff"
     id="stop6995" /></linearGradient><linearGradient
   gradientUnits="userSpaceOnUse"
   gradientTransform="matrix(-1.1975,0,0,1.2115,16.235,21.801)"
   y2="18.938"
   y1="3.7546"
   x2="-5.5099"
   x1="-7.8517"
   id="linearGradient3044"><stop
     offset="0"
     style="stop-color:#fff"
     id="stop7440" /><stop
     offset="1"
     style="stop-color:#fff;stop-opacity:0"
     id="stop7442" /></linearGradient><linearGradient
   gradientUnits="userSpaceOnUse"
   gradientTransform="matrix(-0.61227,0,0,0.62977,31.734,4.0477)"
   y2="54.416"
   y1="55.219"
   x2=".82207"
   x1="1.6256"
   id="linearGradient3040"><stop
     offset="0"
     style="stop-color:#adb0a8"
     id="stop7265" /><stop
     offset="1"
     style="stop-color:#fff"
     id="stop7267" /></linearGradient><linearGradient
   xlink:href="#linearGradient7269"
   gradientUnits="userSpaceOnUse"
   gradientTransform="matrix(-0.59041,0,0,0.61227,31.887,5.1148)"
   y2="54.708"
   y1="59.879"
   x2="-4.2209"
   x1="-4.2209"
   id="linearGradient3037" /><linearGradient
   gradientUnits="userSpaceOnUse"
   gradientTransform="matrix(-0.52481,0,0,0.52481,31.822,10.45)"
   y2="54"
   y1="51.138"
   x2="-3.3588"
   x1="-1.9887"
   id="linearGradient3034"><stop
     offset="0"
     id="stop7259" /><stop
     offset="1"
     style="stop-opacity:0"
     id="stop7261" /></linearGradient><linearGradient
   gradientUnits="userSpaceOnUse"
   gradientTransform="matrix(-0.52481,0,0,0.52481,31.822,10.45)"
   y2="50.563"
   y1="52.64"
   x2=".88388"
   x1="-4.6846"
   id="linearGradient3028"><stop
     offset="0"
     style="stop-color:#eeeeec"
     id="stop7239" /><stop
     offset="1"
     style="stop-color:#babdb6"
     id="stop7241" /></linearGradient><linearGradient
   gradientUnits="userSpaceOnUse"
   gradientTransform="matrix(-0.52481,0,0,0.52481,31.822,10.45)"
   y2="49.458"
   y1="50.519"
   x2=".26517"
   x1="-5.0823"
   id="linearGradient3025"><stop
     offset="0"
     style="stop-color:#eeeeec"
     id="stop7247" /><stop
     offset="1"
     style="stop-color:#fff"
     id="stop7249" /></linearGradient><linearGradient
   gradientUnits="userSpaceOnUse"
   gradientTransform="matrix(-0.52481,0,0,0.52481,31.822,10.45)"
   y2="51.812"
   y1="52.875"
   x2="-5.9688"
   x1="-5.9688"
   id="linearGradient3022"><stop
     offset="0"
     style="stop-color:#888a85"
     id="stop7188" /><stop
     offset="1"
     style="stop-color:#fff"
     id="stop7190" /></linearGradient><linearGradient
   gradientUnits="userSpaceOnUse"
   gradientTransform="matrix(-0.52481,0,0,0.5398,31.822,9.8506)"
   y2="59.445"
   y1="55.867"
   x2="-3.5355"
   x1="-3.5355"
   id="linearGradient3019"><stop
     offset="0"
     style="stop-color:#555753"
     id="stop7279" /><stop
     offset="1"
     style="stop-color:#d3d7cf"
     id="stop7281" /></linearGradient><linearGradient
   gradientUnits="userSpaceOnUse"
   gradientTransform="matrix(-0.58643,0,0,0.58583,41.324,17.812)"
   y2="26.205"
   y1="21"
   x2="32.812"
   x1="32.812"
   id="linearGradient3016"><stop
     offset="0"
     style="stop-color:#2e3436"
     id="stop7342" /><stop
     offset="1"
     style="stop-color:#555753"
     id="stop7344" /></linearGradient><linearGradient
   gradientUnits="userSpaceOnUse"
   gradientTransform="matrix(-0.53925,0,0,0.53925,39.932,18.86)"
   y2="16"
   y1="29"
   x2="29"
   x1="28.875"
   id="linearGradient3013"><stop
     offset="0"
     style="stop-color:#fff"
     id="stop7432" /><stop
     offset="1"
     style="stop-color:#fff;stop-opacity:0"
     id="stop7434" /></linearGradient><linearGradient
   xlink:href="#linearGradient7422"
   gradientUnits="userSpaceOnUse"
   gradientTransform="matrix(-0.53925,0,0,0.53925,39.932,18.32)"
   y2="24.688"
   y1="27.313"
   x2="30.312"
   x1="30.312"
   id="linearGradient3010" /><linearGradient
   id="linearGradient7422"><stop
     offset="0"
     style="stop-color:#edd400"
     id="stop7424" /><stop
     offset="1"
     style="stop-color:#edd400;stop-opacity:0"
     id="stop7426" /></linearGradient><linearGradient
   gradientUnits="userSpaceOnUse"
   gradientTransform="matrix(-0.52481,0,0,0.52481,40.218,23.046)"
   y2="46.562"
   y1="40.625"
   x2="40.125"
   x1="38.75"
   id="linearGradient2998"><stop
     offset="0"
     style="stop-color:#787878"
     id="stop3231" /><stop
     offset="1"
     style="stop-color:#6c6c6c;stop-opacity:0"
     id="stop3233" /></linearGradient><linearGradient
   gradientUnits="userSpaceOnUse"
   gradientTransform="matrix(-0.52481,0,0,0.52481,40.218,23.046)"
   y2="45.062"
   y1="40.312"
   x2="38.875"
   x1="37.625"
   id="linearGradient2996"><stop
     offset="0"
     style="stop-color:#dbdbdb"
     id="stop3225" /><stop
     offset="1"
     style="stop-color:#a0a0a0;stop-opacity:0"
     id="stop3227" /></linearGradient><linearGradient
   gradientUnits="userSpaceOnUse"
   gradientTransform="matrix(-0.52481,0,0,0.52481,40.218,23.046)"
   y2="42.938"
   y1="38.312"
   x2="42.124"
   x1="41.188"
   id="linearGradient2993"><stop
     offset="0"
     style="stop-color:#fff"
     id="stop7662" /><stop
     offset="1"
     style="stop-color:#fff;stop-opacity:0"
     id="stop7664" /></linearGradient><linearGradient
   id="linearGradient7269"><stop
     offset="0"
     style="stop-color:#fff"
     id="stop7271" /><stop
     offset="1"
     style="stop-color:#d3d7cf"
     id="stop7273" /></linearGradient><linearGradient
   xlink:href="#linearGradient7269"
   gradientUnits="userSpaceOnUse"
   gradientTransform="matrix(-0.59041,0,0,0.61227,31.887,5.1312)"
   y2="55"
   y1="58.808"
   x2="-4.1098"
   x1="-4.1098"
   id="linearGradient2990" /><linearGradient
   gradientUnits="userSpaceOnUse"
   gradientTransform="matrix(-0.52481,0,0,0.52481,29.722,23.046)"
   y2="34.562"
   y1="32.438"
   x2="-7.7812"
   x1="-6.4062"
   id="linearGradient2987"><stop
     offset="0"
     id="stop7814" /><stop
     offset="1"
     style="stop-opacity:0"
     id="stop7816" /></linearGradient><radialGradient
   gradientUnits="userSpaceOnUse"
   gradientTransform="matrix(-1.2749e-8,1.7143,-2.1593,-1.46e-8,12.809,2.857)"
   r="21"
   cy="5.0172"
   cx="3"
   id="radialGradient2455"><stop
     offset="0"
     style="stop-color:#bdbdbd"
     id="stop3486" /><stop
     offset="1"
     style="stop-color:#d0d0d0"
     id="stop3488" /></radialGradient><linearGradient
   gradientUnits="userSpaceOnUse"
   gradientTransform="translate(-50.941)"
   y2="16.19"
   y1="13.183"
   x2="62.989"
   x1="62.989"
   id="linearGradient2453"><stop
     offset="0"
     style="stop-color:#f9f9f9"
     id="stop6406" /><stop
     offset="1"
     style="stop-color:#c9c9c9"
     id="stop6408" /></linearGradient><radialGradient
   gradientUnits="userSpaceOnUse"
   gradientTransform="matrix(-0.03213,0,0,0.037059,23.363,25.412)"
   r="117.14"
   cy="486.65"
   cx="605.71"
   id="radialGradient7600-312"><stop
     offset="0"
     id="stop2681" /><stop
     offset="1"
     style="stop-opacity:0"
     id="stop2683" /></radialGradient><radialGradient
   gradientUnits="userSpaceOnUse"
   gradientTransform="matrix(0.03213,0,0,0.037059,24.637,25.412)"
   r="117.14"
   cy="486.65"
   cx="605.71"
   id="radialGradient7598-526"><stop
     offset="0"
     id="stop2675" /><stop
     offset="1"
     style="stop-opacity:0"
     id="stop2677" /></radialGradient><linearGradient
   gradientUnits="userSpaceOnUse"
   gradientTransform="matrix(0.08284,0,0,0.037059,-5.9408,25.412)"
   y2="609.51"
   y1="366.65"
   x2="302.86"
   x1="302.86"
   id="linearGradient7596-975"><stop
     offset="0"
     style="stop-opacity:0"
     id="stop2667" /><stop
     offset=".5"
     id="stop2669" /><stop
     offset="1"
     style="stop-opacity:0"
     id="stop2671" /></linearGradient><linearGradient
   gradientUnits="userSpaceOnUse"
   gradientTransform="translate(-53.765,-0.11419)"
   y2="15.944"
   y1="45.114"
   x2="65.34"
   x1="82.453"
   id="linearGradient2446"><stop
     offset="0"
     style="stop-color:#bb2b12"
     id="stop3624" /><stop
     offset="1"
     style="stop-color:#cd7233"
     id="stop3626" /></linearGradient><radialGradient
   gradientUnits="userSpaceOnUse"
   gradientTransform="matrix(1.5647,-9.5143e-8,6.1772e-8,1.0159,-86.213,8.1461)"
   r="23.097"
   cy="14.113"
   cx="63.969"
   id="radialGradient2444"><stop
     offset="0"
     style="stop-color:#f0c178"
     id="stop3618" /><stop
     offset=".5"
     style="stop-color:#e18941"
     id="stop3270" /><stop
     offset="1"
     style="stop-color:#ec4f18"
     id="stop3620" /></radialGradient><linearGradient
   gradientUnits="userSpaceOnUse"
   gradientTransform="matrix(1.1447,0,0,0.99775,-3.4661,1.0988)"
   y2="36.658"
   y1="49.629"
   x2="22.809"
   x1="22.935"
   id="linearGradient2441"><stop
     offset="0"
     style="stop-color:#0a0a0a;stop-opacity:.498"
     id="stop2661" /><stop
     offset="1"
     style="stop-color:#0a0a0a;stop-opacity:0"
     id="stop2663" /></linearGradient><radialGradient
   gradientUnits="userSpaceOnUse"
   gradientTransform="matrix(0,1.208,-1.6272,0,26.372,8.2665)"
   r="20.98"
   cy="8.3021"
   cx="7.2647"
   id="radialGradient2438"><stop
     offset="0"
     style="stop-color:#fff;stop-opacity:.4"
     id="stop2693" /><stop
     offset="1"
     style="stop-color:#fff;stop-opacity:0"
     id="stop2695" /></radialGradient><linearGradient
   gradientUnits="userSpaceOnUse"
   y2="33.955"
   y1="22.292"
   x2="15.215"
   x1="11.566"
   id="linearGradient2435"><stop
     offset="0"
     style="stop-color:#fff;stop-opacity:.27451"
     id="stop2687" /><stop
     offset="1"
     style="stop-color:#fff;stop-opacity:.078431"
     id="stop2689" /></linearGradient><linearGradient
   gradientUnits="userSpaceOnUse"
   gradientTransform="matrix(0,-0.6146,-0.58384,0,46.949,46.633)"
   y2="20.71"
   y1="20.71"
   x2=".81572"
   x1="28.315"
   id="linearGradient3028-9"><stop
     offset="0"
     style="stop-color:#e6e6e6"
     id="stop2530" /><stop
     offset="1"
     style="stop-color:#929292"
     id="stop2532" /></linearGradient><linearGradient
   gradientUnits="userSpaceOnUse"
   gradientTransform="matrix(0,0.71282,-0.67402,0,50.746,15.046)"
   y2="25.411"
   y1="25.411"
   x2="57.726"
   x1="13.472"
   id="linearGradient3025-1"><stop
     offset="0"
     style="stop-color:#fff"
     id="stop2926" /><stop
     offset="1"
     style="stop-color:#fff;stop-opacity:0"
     id="stop2928" /></linearGradient><radialGradient
   gradientUnits="userSpaceOnUse"
   gradientTransform="matrix(-1.2749e-8 1.7143 -2.1593 -1.46e-8 12.809 2.857)"
   r="21"
   cy="5.0172"
   cx="3"
   id="radialGradient2455-2"><stop
     offset="0"
     style="stop-color:#bdbdbd"
     id="stop3486-7" /><stop
     offset="1"
     style="stop-color:#d0d0d0"
     id="stop3488-0" /></radialGradient><radialGradient
   gradientUnits="userSpaceOnUse"
   gradientTransform="matrix(-.03213 0 0 .037059 23.363 25.412)"
   r="117.14"
   cy="486.65"
   cx="605.71"
   id="radialGradient7600-312-6"><stop
     offset="0"
     id="stop2681-0" /><stop
     offset="1"
     style="stop-opacity:0"
     id="stop2683-6" /></radialGradient><radialGradient
   gradientUnits="userSpaceOnUse"
   gradientTransform="matrix(.03213 0 0 .037059 24.637 25.412)"
   r="117.14"
   cy="486.65"
   cx="605.71"
   id="radialGradient7598-526-2"><stop
     offset="0"
     id="stop2675-6" /><stop
     offset="1"
     style="stop-opacity:0"
     id="stop2677-1" /></radialGradient><radialGradient
   gradientUnits="userSpaceOnUse"
   gradientTransform="matrix(1.5647 -9.5143e-8 6.1772e-8 1.0159 -86.213 8.1461)"
   r="23.097"
   cy="14.113"
   cx="63.969"
   id="radialGradient2444-2"><stop
     offset="0"
     style="stop-color:#f0c178"
     id="stop3618-3" /><stop
     offset=".5"
     style="stop-color:#e18941"
     id="stop3270-7" /><stop
     offset="1"
     style="stop-color:#ec4f18"
     id="stop3620-5" /></radialGradient><radialGradient
   gradientUnits="userSpaceOnUse"
   gradientTransform="matrix(0 1.208 -1.6272 0 26.372 8.2665)"
   r="20.98"
   cy="8.3021"
   cx="7.2647"
   id="radialGradient2438-2"><stop
     offset="0"
     style="stop-color:#fff;stop-opacity:.4"
     id="stop2693-8" /><stop
     offset="1"
     style="stop-color:#fff;stop-opacity:0"
     id="stop2695-9" /></radialGradient><linearGradient
   xlink:href="#linearGradient4157-401"
   gradientUnits="userSpaceOnUse"
   gradientTransform="matrix(0.33339,0,0,0.33591,2.9802,-1.4923)"
   y2="11.735"
   y1="40.523"
   x2="5.525"
   x1="20.253"
   id="linearGradient2757" /><linearGradient
   xlink:href="#linearGradient3997"
   gradientUnits="userSpaceOnUse"
   gradientTransform="matrix(0.23554,0,5.2453e-8,0.20448,-28.67,14.795)"
   y2="170.29"
   y1="3.0903"
   x2="79.104"
   x1=".63341"
   id="linearGradient2755" /><radialGradient
   xlink:href="#linearGradient4432"
   gradientUnits="userSpaceOnUse"
   gradientTransform="matrix(0.28202,-0.0016216,5.8623e-4,0.16151,0.59878,-2.6832)"
   r="42.271"
   cy="42.855"
   cx="19.273"
   id="radialGradient2753" /><linearGradient
   id="linearGradient4157-401"><stop
     offset="0"
     style="stop-color:#262626"
     id="stop3688" /><stop
     offset="1"
     style="stop-color:#828282"
     id="stop3690" /></linearGradient><linearGradient
   id="linearGradient3997"><stop
     offset="0"
     style="stop-color:#f3f7fa"
     id="stop3999" /><stop
     offset="1"
     style="stop-color:#fdfeff"
     id="stop4001" /></linearGradient><linearGradient
   xlink:href="#linearGradient3997"
   gradientUnits="userSpaceOnUse"
   gradientTransform="matrix(0.23554,0,5.2453e-8,0.20448,25.094,19.933)"
   y2="170.29"
   y1="3.0903"
   x2="79.104"
   x1=".63341"
   id="linearGradient2749" /><radialGradient
   gradientUnits="userSpaceOnUse"
   gradientTransform="matrix(-1.2749e-8 1.7143 -2.1593 -1.46e-8 12.809 2.857)"
   r="21"
   cy="5.0172"
   cx="3"
   id="radialGradient2455-6"><stop
     offset="0"
     style="stop-color:#bdbdbd"
     id="stop3486-1" /><stop
     offset="1"
     style="stop-color:#d0d0d0"
     id="stop3488-2" /></radialGradient><radialGradient
   gradientUnits="userSpaceOnUse"
   gradientTransform="matrix(-.03213 0 0 .037059 23.363 25.412)"
   r="117.14"
   cy="486.65"
   cx="605.71"
   id="radialGradient7600-312-1"><stop
     offset="0"
     id="stop2681-9" /><stop
     offset="1"
     style="stop-opacity:0"
     id="stop2683-4" /></radialGradient><radialGradient
   gradientUnits="userSpaceOnUse"
   gradientTransform="matrix(.03213 0 0 .037059 24.637 25.412)"
   r="117.14"
   cy="486.65"
   cx="605.71"
   id="radialGradient7598-526-7"><stop
     offset="0"
     id="stop2675-8" /><stop
     offset="1"
     style="stop-opacity:0"
     id="stop2677-4" /></radialGradient><radialGradient
   gradientUnits="userSpaceOnUse"
   gradientTransform="matrix(1.5647 -9.5143e-8 6.1772e-8 1.0159 -86.213 8.1461)"
   r="23.097"
   cy="14.113"
   cx="63.969"
   id="radialGradient2444-0"><stop
     offset="0"
     style="stop-color:#f0c178"
     id="stop3618-6" /><stop
     offset=".5"
     style="stop-color:#e18941"
     id="stop3270-3" /><stop
     offset="1"
     style="stop-color:#ec4f18"
     id="stop3620-2" /></radialGradient><radialGradient
   gradientUnits="userSpaceOnUse"
   gradientTransform="matrix(0 1.208 -1.6272 0 26.372 8.2665)"
   r="20.98"
   cy="8.3021"
   cx="7.2647"
   id="radialGradient2438-1"><stop
     offset="0"
     style="stop-color:#fff;stop-opacity:.4"
     id="stop2693-5" /><stop
     offset="1"
     style="stop-color:#fff;stop-opacity:0"
     id="stop2695-5" /></radialGradient><linearGradient
   id="linearGradient4432"><stop
     offset="0"
     style="stop-color:#f6b2ee"
     id="stop4434" /><stop
     offset=".26238"
     style="stop-color:#d979cd"
     id="stop4436" /><stop
     offset=".66094"
     style="stop-color:#753da6"
     id="stop4438" /><stop
     offset="1"
     style="stop-color:#0f1027"
     id="stop4440" /></linearGradient><radialGradient
   xlink:href="#linearGradient4432"
   gradientUnits="userSpaceOnUse"
   gradientTransform="matrix(0.2769,0.0055362,-0.0068315,0.2669,1.1197,-7.5855)"
   r="42.271"
   cy="46.836"
   cx="14.98"
   id="radialGradient3692" /><linearGradient
   inkscape:collect="always"
   xlink:href="#linearGradient4157-401"
   id="linearGradient1927"
   gradientUnits="userSpaceOnUse"
   gradientTransform="matrix(0.33339,0,0,0.33591,2.9802,-1.4923)"
   x1="20.253"
   y1="40.523"
   x2="5.525"
   y2="11.735" /><linearGradient
   inkscape:collect="always"
   xlink:href="#linearGradient986"
   id="linearGradient988"
   x1="144.54202"
   y1="210.86158"
   x2="787.31909"
   y2="210.18794"
   gradientUnits="userSpaceOnUse" /><linearGradient
   inkscape:collect="always"
   xlink:href="#linearGradient1002"
   id="linearGradient1004"
   x1="123.24543"
   y1="211.81396"
   x2="-144.47839"
   y2="213.44846"
   gradientUnits="userSpaceOnUse" /></defs>


<sodipodi:namedview
   inkscape:guide-bbox="true"
   showguides="true"
   showgrid="false"
   inkscape:current-layer="svg2"
   inkscape:window-y="27"
   inkscape:window-x="81"
   inkscape:cy="299.95046"
   inkscape:cx="390.06059"
   inkscape:zoom="0.95508595"
   inkscape:window-height="1130"
   inkscape:window-width="1726"
   inkscape:pageshadow="2"
   inkscape:pageopacity="0.0"
   borderopacity="1.0"
   bordercolor="#666666"
   pagecolor="#ffffff"
   id="base"
   fit-margin-top="0"
   fit-margin-left="0"
   fit-margin-right="0"
   fit-margin-bottom="0"
   inkscape:window-maximized="0">
  


  


  


  


</sodipodi:namedview>



	<path
   sodipodi:nodetypes="ccccc"
   id="path1668"
   d="M 4.3909791,11.869241 124.91502,1.3573895 121.66748,421.37498 1.5921455,413.32747 Z"
   style="fill:url(#linearGradient1004);fill-opacity:1;fill-rule:evenodd;stroke:#8c8c8c;stroke-width:1.21272171;stroke-linecap:round;stroke-linejoin:round;stroke-miterlimit:4;stroke-dasharray:none;stroke-opacity:1"
   inkscape:connector-curvature="0" />


























<path
   sodipodi:nodetypes="ccccc"
   id="path1670"
   d="M 148.45619,2.0760995 419.12795,52.148101 421.16055,385.94788 145.1888,419.64705 Z"
   style="fill:url(#linearGradient988);fill-opacity:1;fill-rule:evenodd;stroke:#7f7f7f;stroke-width:1.29356992px;stroke-linecap:round;stroke-linejoin:round;stroke-opacity:1"
   inkscape:connector-curvature="0" />

<g
   id="g882"
   transform="matrix(1.344239,0,0,1,-138.47652,436.27221)"><path
     d="m 201.2175,-39.216091 a 15.556901,18.749432 0 0 1 -15.53885,18.749419 15.556901,18.749432 0 0 1 -15.57491,-18.7059 15.556901,18.749432 0 0 1 15.5027,-18.792837 15.556901,18.749432 0 0 1 15.61089,18.662279 l -15.55673,0.08704 z"
     sodipodi:end="6.2785431"
     sodipodi:start="0"
     sodipodi:ry="18.749432"
     sodipodi:rx="15.556901"
     sodipodi:cy="-39.216091"
     sodipodi:cx="185.6606"
     sodipodi:type="arc"
     transform="matrix(0.86256278,-0.50595005,0.32839928,0.94453899,0,0)"
     id="path6296"
     style="fill:#fffffe;fill-opacity:1;fill-rule:evenodd;stroke:none;stroke-width:2.69663763;stroke-linecap:round;stroke-linejoin:round;stroke-miterlimit:4;stroke-dasharray:none;stroke-opacity:1" /><path
     d="m 198.8081,-36.424076 a 13.119155,16.171103 0 0 1 -13.10392,16.171092 13.119155,16.171103 0 0 1 -13.13435,-16.133557 13.119155,16.171103 0 0 1 13.07344,-16.20854 13.119155,16.171103 0 0 1 13.16469,16.095936 l -13.11901,0.07507 z"
     sodipodi:end="6.2785431"
     sodipodi:start="0"
     sodipodi:ry="16.171103"
     sodipodi:rx="13.119155"
     sodipodi:cy="-36.424076"
     sodipodi:cx="185.68895"
     sodipodi:type="arc"
     transform="matrix(0.85454019,-0.51938527,0.31810853,0.9480543,0,0)"
     id="path6296-3"
     style="overflow:visible;fill:#000000;fill-opacity:1;fill-rule:evenodd;stroke:none;stroke-width:2.29979825;stroke-linecap:round;stroke-linejoin:round;stroke-miterlimit:4;stroke-dasharray:none;stroke-opacity:1" /></g><g
   id="g978"
   transform="matrix(1.673323,0,0,1,-186.59217,436.27221)"><path
     sodipodi:nodetypes="ccccc"
     id="path4768"
     d="m 118.06041,-403.29885 62.9334,-8.7694 -1.45773,250.98252 -63.06753,-0.49894 z"
     style="fill:#f9faf9;fill-opacity:1;fill-rule:evenodd;stroke:#000000;stroke-width:1.3125;stroke-linecap:round;stroke-linejoin:round;stroke-miterlimit:4;stroke-dasharray:none;stroke-opacity:0"
     inkscape:connector-curvature="0" /><path
     sodipodi:nodetypes="ccccc"
     id="path5528"
     d="m 118.15161,-384.5226 62.84157,-7.82162 -0.15382,19.28136 -62.79909,6.4044 z"
     style="fill:#9d8f8a;fill-opacity:1;fill-rule:evenodd;stroke:#000000;stroke-width:0.18749999;stroke-linecap:round;stroke-linejoin:round;stroke-miterlimit:4;stroke-dasharray:none;stroke-opacity:1"
     inkscape:connector-curvature="0" /><path
     sodipodi:nodetypes="cc"
     id="path6294"
     d="m 119.99578,-202.57756 57.46347,-0.0789"
     style="fill:none;fill-opacity:0.75;fill-rule:evenodd;stroke:#000000;stroke-width:1.87499988;stroke-linecap:round;stroke-linejoin:miter;stroke-miterlimit:4;stroke-dasharray:none;stroke-opacity:1"
     inkscape:connector-curvature="0" /><path
     sodipodi:nodetypes="ccccc"
     id="path5528-6"
     d="m 116.90918,-174.20768 62.66805,0.50742 0.19322,7.91568 -62.88585,-0.8835 z"
     style="overflow:visible;fill:#726b6b;fill-opacity:1;fill-rule:evenodd;stroke:#000000;stroke-width:0.18749999;stroke-linecap:round;stroke-linejoin:round;stroke-miterlimit:4;stroke-dasharray:none;stroke-opacity:1"
     inkscape:connector-curvature="0" /><path
     sodipodi:nodetypes="cc"
     id="path6294-7"
     d="m 119.4879,-239.44167 58.19967,-1.55128"
     style="overflow:visible;fill:none;fill-opacity:0.75;fill-rule:evenodd;stroke:#000000;stroke-width:1.87499988;stroke-linecap:round;stroke-linejoin:miter;stroke-miterlimit:4;stroke-dasharray:none;stroke-opacity:1"
     inkscape:connector-curvature="0" /><path
     sodipodi:nodetypes="cc"
     id="path6294-5"
     d="m 120.22409,-276.37388 57.34077,-2.53287"
     style="overflow:visible;fill:none;fill-opacity:0.75;fill-rule:evenodd;stroke:#000000;stroke-width:1.87499988;stroke-linecap:round;stroke-linejoin:miter;stroke-miterlimit:4;stroke-dasharray:none;stroke-opacity:1"
     inkscape:connector-curvature="0" /><path
     sodipodi:nodetypes="cc"
     id="path6294-3"
     d="m 120.96029,-313.30609 56.84997,-3.51445"
     style="overflow:visible;fill:none;fill-opacity:0.75;fill-rule:evenodd;stroke:#000000;stroke-width:1.87499988;stroke-linecap:round;stroke-linejoin:miter;stroke-miterlimit:4;stroke-dasharray:none;stroke-opacity:1"
     inkscape:connector-curvature="0" /></g><g
   id="g989"
   transform="matrix(1.673323,0,0,1,-186.59217,436.27221)"><path
     inkscape:connector-curvature="0"
     style="overflow:visible;fill:#9a8e8e;fill-opacity:1;fill-rule:evenodd;stroke:#a6a6a6;stroke-width:1px;stroke-linecap:round;stroke-linejoin:round;stroke-opacity:1"
     d="m 186.16082,-434.91482 6.69385,0.19814 -1.34532,418.959129 -7.2893,0.860319 z"
     id="path1670-6"
     sodipodi:nodetypes="ccccc" /><path
     inkscape:connector-curvature="0"
     style="overflow:visible;fill:#796955;fill-opacity:1;fill-rule:evenodd;stroke:#949494;stroke-width:1px;stroke-linecap:round;stroke-linejoin:round;stroke-opacity:1"
     d="m 192.85467,-434.71668 7.37467,0.52057 -1.95264,417.57095 -6.76735,0.867609 z"
     id="path1670-6-2"
     sodipodi:nodetypes="ccccc" /><g
     id="g982"><path
       style="fill:#554141;fill-opacity:1;fill-rule:evenodd;stroke:#ffffff;stroke-width:1.53125608;stroke-linecap:butt;stroke-linejoin:miter;stroke-miterlimit:4;stroke-dasharray:none;stroke-opacity:1"
       d="m 202.38983,-182.66649 c -6.39792,-0.0279 -6.04174,13.20442 0.008,12.93406 6.99006,-0.29805 15.57302,-0.27907 23.27639,-0.81782 5.0488,-0.25008 5.40468,-12.1914 -0.55981,-12.4082 -5.12285,-0.0286 -14.69592,-0.10371 -22.7248,0.29196 z"
       id="path1314"
       sodipodi:nodetypes="ccccc"
       inkscape:connector-curvature="0" /><path
       style="overflow:visible;fill:#554141;fill-opacity:1;fill-rule:evenodd;stroke:#ffffff;stroke-width:1.39483368;stroke-linecap:butt;stroke-linejoin:miter;stroke-miterlimit:4;stroke-dasharray:none;stroke-opacity:1"
       d="m 203.74717,-287.91371 c -6.39792,-0.53687 -6.04174,10.47128 0.008,10.73272 6.99006,0.31396 15.57302,1.01887 23.27639,1.1904 5.0488,0.19788 5.40468,-9.6819 -0.55981,-10.34071 -5.12285,-0.43507 -14.69592,-1.26606 -22.7248,-1.58243 z"
       id="path1314-5"
       sodipodi:nodetypes="ccccc"
       inkscape:connector-curvature="0" /></g></g><g
   transform="matrix(10.667401,0,0,10.392448,502.77701,-37.970105)"
   id="g2738"><g
     transform="matrix(0.86603,-0.5,0.5,0.86603,-71.468,12.955)"
     id="g2637"><rect
       style="fill:url(#linearGradient2749);stroke:#909090;stroke-width:1.00709999;stroke-linecap:round;stroke-linejoin:round;stroke-opacity:0.96863002"
       height="20.912001"
       width="20.903999"
       y="25.625"
       x="23.639999"
       transform="matrix(1,-0.0017355,-0.0021096,1,0,0)"
       id="rect2629" /><g
       transform="matrix(1.5596,0,0,1.5535,21.529,23.56)"
       id="g2631"><rect
         style="fill:url(#linearGradient1927);stroke:#333333;stroke-width:0.65614003;stroke-linecap:round;stroke-linejoin:round;stroke-opacity:0.96863002"
         ry="0"
         rx="0"
         height="9.6223001"
         width="10.867"
         y="2.5667"
         x="2.5776999"
         transform="matrix(1,-0.0017885,-0.002047,1,0,0)"
         id="rect2633" /><rect
         style="opacity:0.3;fill:url(#radialGradient2753)"
         ry="0"
         rx="0"
         height="9.6223001"
         width="10.866"
         y="2.5667"
         x="2.5776999"
         transform="matrix(1,-0.0017885,-0.002047,1,0,0)"
         id="rect2635" /></g></g><rect
     style="fill:url(#linearGradient2755);stroke:#909090;stroke-width:1.00709999;stroke-linecap:round;stroke-linejoin:round;stroke-opacity:0.96863002"
     height="20.912001"
     width="20.903999"
     y="20.487"
     x="-30.124001"
     transform="matrix(1,-0.0017355,-0.0021096,1,0,0)"
     id="rect2722" /><g
     transform="matrix(1.5596,0,0,1.5535,-32.224,18.515)"
     id="g2724"><rect
       style="fill:url(#linearGradient2757);stroke:#333333;stroke-width:0.65614003;stroke-linecap:round;stroke-linejoin:round;stroke-opacity:0.96863002"
       ry="0"
       rx="0"
       height="9.6223001"
       width="10.867"
       y="2.5667"
       x="2.5776999"
       transform="matrix(1,-0.0017885,-0.002047,1,0,0)"
       id="rect2726" /><rect
       style="opacity:0.23999999;fill:url(#radialGradient3692)"
       ry="0"
       rx="0"
       height="9.6223001"
       width="10.866"
       y="2.5667"
       x="2.5776999"
       transform="matrix(1,-0.0017885,-0.002047,1,0,0)"
       id="rect2918" /></g></g></svg>